{
  "commonBrand": {

    "common": {
      "nextButton": {
        "type": "XPATH",
        "value": "//*[@id='continueButton']"
      },
      "needHelpButton": {
        "type": "ID",
        "value": "contactus-button"
      },
      "backButton": {
        "type": "XPATH",
        "value": "//div/form/div/div/button[1]"
      },
      "progressBar": {
        "type": "XPATH",
        "value": "//body/ui-view/ui-view/bp-home/section"
      },
      "logoImg": {
        "type": "XPATH",
        "value": "//*[@id='brandLogoMain']/img"
      },
      "progressBarLinks": {
        "type": "XPATH",
        "value": "//bp-home/section/bp-multi-step-nav/div[1]/ol//span[contains(text(),'<linkText>')]"
      }

    },


    "needHelpModal": {
      "phoneNumber": {
        "type": "ID",
        "value": "contactNo"
      },
      "continueButton": {
        "type": "XPATH",
        "value": "//*[@id=\"modal-callus\"]/div[2]/button"
      }
    },

    "wpPage" : {
      "textFieldWPUserName" : {
        "type" : "ID",
        "value" : "username"
      },
      "textFieldWPPassword" : {
        "type" : "NAME",
        "value" : "password"
      },
      "buttonWPLogin" : {
        "type" : "ID",
        "value" : "login"
      },
      "labelWPLogout" : {
        "type" : "ID",
        "value" : "version2MenuLogout"
      },
      "dropDownWPMerchantCd" : {
        "type" : "ID",
        "value" : "selectedMerchantCode"
      },
      "buttonWPProceed" : {
        "type" : "ID",
        "value" : "proceed"
      },
      "buttonWPTest" : {
        "type" : "XPATH",
        "value" : "//div[@class=\"ui-switch-middle\"]"
      },
      "buttonWPTransaction" : {
        "type" : "ID",
        "value" : "transactionsMenuUrl"
      },
      "buttonWPRow" : {
        "type" : "XPATH",
        "value" : "//*[@name='bulkCapture']//tr/td[3]/a"
      },
      "labelWPEmailId" : {
        "type" : "XPATH",
        "value" : "//*[@id=\"contentpopupmain\"]//tr[1]//tr[4]/td[3]"
      },
      "buttonWPCloseTrans" : {
        "type" : "XPATH",
        "value" : "//*[@id=\"contentpopupbar\"]/a"
      },
      "labelWPName" : {
        "type" : "XPATH",
        "value" : "//*[@id=\"contentpopupmain\"]//tr[3]//tr[6]/td[1]"
      },
      "labelWPAVS" : {
        "type" : "XPATH",
        "value" : "//*[@id=\"contentpopupmain\"]//tr[6]//tr[3]/td"
      },
      "labelWPCVC" : {
        "type" : "XPATH",
        "value" : "//*[@id=\"contentpopupmain\"]//th[text()='CVC']/following-sibling::td"
      },
        "labelWPAddress" : {
        "type" : "XPATH",
        "value" : "//*[@id=\"contentpopupmain\"]/table[1]/tbody/tr[3]/td/table/tbody/tr[11]/td[1]"
      },
      "labelWPGBP" : {
        "type" : "XPATH",
        "value" : "//*[@id=\"contentpopupmain\"]//tr[3]//tr[3]/td[1]"
      },
      "labelWPStatus" : {
        "type" : "ID",
        "value" : "status_id"
      }
    },

    "YourHomePage": {

      "postcode": {
        "type": "ID",
        "value": "postcode"
      },
      "closeCookieIcon": {
        "type": "CLASSNAME",
        "value": "icon-close"
      },
      "findAddress": {
        "type": "CLASSNAME",
        "value": "search-text"
      },
      "chooseYourAddress": {
        "type": "ID",
        "value": "address"
      },
      "approxYearBuilt": {
        "type": "ID",
        "value": "approxYearBuilt"
      },
      "yearBuiltErrMsg": {
        "type": "XPATH",
        "value": "//*[@id='error-approxYearBuilt']/span[2]"
      },
      "exteriorWalls": {
        "type": "XPATH",
        "value": "//*[@id=\"group-wallsTypes\"]/parent::label/following-sibling::div//label[text()='<extWallsText>']"
      },
      "viewExtWallOptions": {
        "type": "XPATH",
        "value": "//a[text()='View all exterior wall options']"
      },
      "roofType": {
        "type": "XPATH",
        "value": "//*[@id=\"group-flatRoof\"]/parent::label/following-sibling::div//label[contains(text(),'<roofTypeText>')]"
      },
      "isListedBuilding": {
        "type": "XPATH",
        "value": "//div/bp-radio-toggle/div/fieldset//label[contains(text(),'<listedBuildingText>')]"
      },
      "fieldLevelErrListedBuilding": {
        "type": "XPATH",
        "value": "//*[@id='error-listedBuilding']/span[2]"
      },

      "numberOfBedrooms": {
        "type": "XPATH",
        "value": "//*[@id='group-noOfBeds']/parent::label/following-sibling::div//label[contains(text(),'<numOfBedroomsText>')]"
      },
      "numberOfBathrooms": {
        "type": "XPATH",
        "value": "//*[@id=\"group-noOfBathrooms\"]/parent::label/following-sibling::div//label[contains(text(),'<numOfBathroomsText>')]"
      },
      "propertyType": {
        "type": "XPATH",
        "value": "//*[@id=\"group-accommodationTypeParent\"]/parent::label/following-sibling::div//label[contains(text(),'<propertyTypeText>')]"
      },
      "landlordInsurance": {
        "type": "XPATH",
        "value": "//div/form/bp-radio-list[2]/div/fieldset/span/ng-bind-html/a"
      },
      "propertyDescription": {
        "type": "XPATH",
        "value": "//*[@id=\"group-accommodationType\"]/parent::label/following-sibling::div//label[contains(text(),'<propertyDescriptionText>')]"
      },
      "flooded": {
        "type": "XPATH",
        "value": "//*[@id=\"group-flooded\"]/parent::label/following-sibling::div//label[contains(text(),'<floodedText>')]"
      },
      "floodErrMsg": {
        "type": "XPATH",
        "value": "//*[@id='error-flooded']/span[2]"
      },
      "propertyStatus": {
        "type": "XPATH",
        "value": "//*[@id=\"group-propertyStatus\"]/parent::label/following-sibling::div//label[contains(text(),'<propertyStatusText>')]"
      },
      "coverType": {
        "type": "XPATH",
        "value": "//*[@id=\"group-coverType\"]/parent::label/following-sibling::div//label[contains(text(),'<coverTypeText>')]"
      },
      "numOfAdults": {
        "type": "XPATH",
        "value": "//*[@id=\"group-noOfAdults\"]/parent::label/following-sibling::div//label[contains(text(),'<numOfAdultsText>')]"
      },
      "numOfChildren": {
        "type": "XPATH",
        "value": "//*[@id=\"group-noOfChildren\"]/parent::label/following-sibling::div//label[contains(text(),'<numOfChildrenText>')]"
      },
      "alarmInstalled": {
        "type": "XPATH",
        "value": "//*[@id=\"group-alarmed\"]/parent::label/following-sibling::div//label[contains(text(),'<isAlarmInstalled>')]"
      },
      "coverStartMonth": {
        "type": "ID",
        "value": "coverStartDate-month"
      },
      "coverStartDay": {
        "type": "ID",
        "value": "coverStartDate-day"
      },
      "numOfClaims": {
        "type": "XPATH",
        "value": "//*[@id='group-numberOfClaims']/parent::label/following-sibling::div//label[contains(text(),'<numOfClaimsText>')]"
      },
      "numOfClaimsErrMsg": {
        "type": "XPATH",
        "value": "//*[@id='error-numberOfClaims']/span[2]"
      },

      "numOfClaimsFreeB": {
        "type": "XPATH",
        "value": "//*[@id='group-claimsFreeB']/parent::label/following-sibling::div//label[contains(text(),'<numOfClaimsFreeB>')]"
      },
      "numOfClaimsFreeC": {
        "type": "XPATH",
        "value": "//*[@id='group-claimsFreeC']/parent::label/following-sibling::div//label[contains(text(),'<numOfClaimsFreeC>')]"
      },
      "labelYourHomeTitle": {
        "type": "XPATH",
        "value": "//h2[@class='form-heading bdd-yourHome m-bottom-zero']"
      },
      "labelAboutYourHome": {
        "type": "CLASSNAME",
        "value": "bdd-aboutYourHome"
      },
      "labelCompleteAll": {
        "type": "XPATH",
        "value": "//div[@class=\"form-wrapper\"]/form/p[@class=\"m-bottom-zero\"]"
      },
      "labelPostcode": {
        "type": "ID",
        "value": "label-postcode"
      },
      "labelChooseAddr": {
        "type": "ID",
        "value": "label-address"
      },
      "labelListedBuild": {
        "type": "ID",
        "value": "group-listedBuilding"
      },
      "labelPropertyStatus": {
        "type": "ID",
        "value": "group-propertyStatus"
      },
      "labelCovertype": {
        "type": "ID",
        "value": "group-coverType"
      },
      "labelYearBuilt": {
        "type": "ID",
        "value": "label-approxYearBuilt"
      },
      "labelProptype": {
        "type": "ID",
        "value": "group-accommodationTypeParent"
      },
      "labelPropSubtype": {
        "type": "ID",
        "value": "group-accommodationType"
      },
      "labelFloodStatus": {
        "type": "ID",
        "value": "group-flooded"
      },
      "labelWalltype": {
        "type": "ID",
        "value": "group-wallsTypes"
      },
      "labelFlatRoof": {
        "type": "ID",
        "value": "group-flatRoof"
      },
      "labelNoOfBedRoom": {
        "type": "ID",
        "value": "group-noOfBeds"
      },
      "labelBedroomPhone": {
        "type": "CLASSNAME",
        "value": "bdd-plaintext-noOfBeds"
      },
      "labelNoOfBath": {
        "type": "ID",
        "value": "group-noOfBathrooms"
      },
      "labelBathPhone": {
        "type": "CLASSNAME",
        "value": "bdd-plaintext-noOfBathrooms"
      },
      "labelNoOfAdults": {
        "type": "ID",
        "value": "group-noOfAdults"
      },
      "labelAdultsPhone": {
        "type": "CLASSNAME",
        "value": "bdd-plaintext-noOfAdults"
      },
      "labelNoOfChildren": {
        "type": "ID",
        "value": "group-noOfChildren"
      },
      "labelAlarm": {
        "type": "ID",
        "value": "group-alarmed"
      },
      "labelCovStDt": {
        "type": "ID",
        "value": "group-coverStartDate"
      },
      "labelYourClaims": {
        "type": "CLASSNAME",
        "value": "bdd-yourClaims"
      },
      "labelnoOfClaims": {
        "type": "ID",
        "value": "group-numberOfClaims"
      },
      "labelClaimFreeYrB": {
        "type": "ID",
        "value": "group-claimsFreeB"
      },
      "labelClaimFreeYrC": {
        "type": "ID",
        "value": "group-claimsFreeC"
      },
      "claimsListClaimMonth": {
        "type": "ID",
        "value": "claimsList<noOfclaims>.claimMonth"
      },
      "claimsListClaimYear": {
        "type": "ID",
        "value": "claimsList<noOfclaims>.claimYear"
      },
      "claimsListTypeOfClaim": {
        "type": "ID",
        "value": "claimsList<noOfclaims>.typeOfClaim"
      },
      "claimsListClaimValue": {
        "type": "ID",
        "value": "claimsList<noOfclaims>.claimValue"
      },
      "claimsListClaimAddress": {
        "type": "ID",
        "value": "label-claimsList<noOfclaims>.wasClaimAddressToBeInsured-0"
      },
      "labelNumberOfClaims": {
        "type": "ID",
        "value": "label-numberOfClaims-<index>"
      },
      "fieldLevelErrorBedrooms": {
        "type": "XPATH",
        "value": "//*[@id=\"error-noOfBeds\"]/span[2]"
      }

    },

    "BedroomModal" : {
      "title": {
        "type": "XPATH",
        "value": "//*[@id='modal-idd']/div[1]/h2"
      },
      "closeIcon": {
        "type": "XPATH",
        "value": "//*[@id='modal-idd']/button/span"
      }

    },

    "YourDetailsPage": {
      "title": {
        "type": "XPATH",
        "value": "//bp-radio-list//label[normalize-space()='<titleText>']"
      },
      "firstName": {
        "type": "ID",
        "value": "firstName"
      },
      "surName": {
        "type": "ID",
        "value": "Surname"
      },
      "dayOfBirth": {
        "type": "ID",
        "value": "dateOfBirth-day"
      },
      "monthOfBirth": {
        "type": "ID",
        "value": "dateOfBirth-month"
      },
      "yearOfBirth": {
        "type": "ID",
        "value": "dateOfBirth-year"
      },
      "emailAddress": {
        "type": "ID",
        "value": "emailAddress"
      },
      "contactNum": {
        "type": "ID",
        "value": "phoneNumber"
      },
      "jointPolicyHolder": {
        "type": "XPATH",
        "value": "//bp-radio-toggle[2]//fieldset/div/div[1]/label[contains(text(),'<jointPolicyHolderText>')]"
      },
      "preferredPaymentType": {
        "type": "XPATH",
        "value": "//bp-radio-toggle[3]//fieldset/div//label[contains(text(),'<preferredPaymentTypeText>')]"
      }
    },

    "YourNeedsPage" : {

      "buildingsCoverQuestion": {
        "type": "XPATH",
        "value": "//*[@id='group-needsBuildings']/ng-bind-html"
      },

      "contentsCoverQuestion": {
        "type": "XPATH",
        "value": "//*[@id='group-needsContents']/ng-bind-html"
      },
      "needsHVIQuestion": {
        "type": "XPATH",
        "value": "//*[@id='group-needsHighValue']/ng-bind-html"
      },
      "needsBicycleQuestion": {
        "type": "XPATH",
        "value": "//*[@id='group-needsBicycles']/ng-bind-html"
      },
      "needsContentsCover": {
        "type": "XPATH",
        "value": "//*[@id='group-needsContents']/parent::label/following-sibling::div//label[contains(text(),'<contentsTxt>')]"
      },
      "needsContentsCoverYes": {
        "type": "ID",
        "value": "label-needsContents-0"
      },
      "needsContentsCoverNo": {
        "type": "ID",
        "value": "label-needsContents-1"
      },
      "contentsValueTxt": {
        "type": "ID",
        "value": "needsContentsValue"
      },
      "randomPlaceOnScreen": {
        "type": "XPATH",
        "value": "//*[@id='maincontent']/div/div"
      },

      "needsBuildingsCover": {
        "type": "XPATH",
        "value": "//*[@id='group-needsBuildings']/parent::label/following-sibling::div//label[contains(text(),'<blgsTxt>')]"
      },
      "needsBuildingsCoverNo": {
        "type": "ID",
        "value": "label-needsBuildings-1"
      },
      "needsBuildingsCoverYes": {
        "type": "ID",
        "value": "label-needsBuildings-0"
      },
      "needsHighValue": {
        "type": "XPATH",
        "value": "//*[@id='group-needsHighValue']/parent::label/following-sibling::div//label[contains(text(),'<hviTxt>')]"
      },
      "needsHighValueNo": {
        "type": "ID",
        "value": "label-needsHighValue-1"
      },
      "needsBicyclesNo": {
        "type": "ID",
        "value": "label-needsBicycles-1"
      },
      "needsHighValueYes": {
        "type": "ID",
        "value": "label-needsHighValue-0"
      },
      "needsBicycles": {
        "type": "XPATH",
        "value": "//*[@id='group-needsBicycles']/parent::label/following-sibling::div//label[contains(text(),'<bikeTxt>')]"
      },
      "needsBicyclesYes": {
        "type": "ID",
        "value": "label-needsBicycles-0"
      },
      "securityRequirementsTitle": {
        "type": "XPATH",
        "value": "//section/form/section[1]/div/h3"
      },
      "5LeverMorticeLink": {
        "type": "XPATH",
        "value": "//form/section[1]/div/ul/li[1]/a"
      },
      "fullDetailsLink": {
        "type": "XPATH",
        "value": "//form/section[1]/div/p[2]/a"
      },
      "5LeverMorticeModalTitle": {
        "type": "XPATH",
        "value": "//*[@id='deadlock-modal-qs dialog']/div[2]/deadlock-modal/div/header/h1"
      },
      "5LeverMorticeClose": {
        "type": "ID",
        "value": "modalCloseButton"
      },
      "alarmEndorsementTitle": {
      "type": "XPATH",
      "value": "//h3[text()='Alarm endorsement']"
      },
      "spinner": {
        "type": "ID",
        "value": "Fill-18"
      },
      "contentsCoverErrorMsg": {
        "type": "XPATH",
        "value": "//*[@id='error-needsContents']/span[2]"
      },
      "buildingsCoverErrorMsg": {
        "type": "XPATH",
        "value": "//*[@id='error-needsBuildings']/span[2]"
      },
      "hviCoverErrorMsg": {
        "type": "XPATH",
        "value": "//*[@id='error-needsHighValue']/span[2]"
      },
      "bicycleCoverErrorMsg": {
        "type": "XPATH",
        "value": "//*[@id='error-needsBicycles']/span[2]"
      }

    },

    "ImportantInfoPage": {
      "keepMeInformed": {
        "type": "XPATH",
        "value": "//bp-checkbox-single[1]/div/label"
      },
      "byPhoneCheckbox": {
        "type": "XPATH",
        "value": "//div/form/section[5]/bp-checkbox-single[1]"

      },
      "informedBySMS": {
        "type": "XPATH",
        "value": "//bp-checkbox-single[2]/div/label"
      },
      "assumptions": {
        "type": "XPATH",
        "value": "//bp-checkbox-single[3]/div/label"
      },
      "assumptionsYes": {
        "type": "ID",
       "value": "label-assumptions-0"
      },
      "assumptionsNo": {
        "type": "ID",
        "value": "label-assumptions-1"
      },
      "assumptionsError": {
        "type": "XPATH",
        "value": "//*[@id=\"error-assumptions\"]/span[2]"
      },
      "policyWordingLink": {
        "type": "XPATH",
        "value": "//div/form/p/a"
      }
    },

    "YourQuotePage": {
      "headerText" : {
        "type": "XPATH",
        "value": "//*[@id='maincontent']/section[1]/div/h3"
      },
      "headerSubtext" : {
        "type": "XPATH",
        "value": "//*[@id='maincontent']/section[1]/div/p"
      },
      "accidentalCoveryType" : {
        "type": "CLASSNAME",
        "value": "accidental-damage-covertype"
      },
      "buildingsSumInsuredStd" : {
        "type": "XPATH",
        "value": "//section/form//table/tbody/tr//span[contains(text(), 'Buildings sum')]/ancestor::tr/td[1]"
      },
      "buildingsSumInsuredElite" : {
        "type": "XPATH",
        "value": "//section/form//table/tbody/tr//span[contains(text(), 'Buildings sum')]/ancestor::tr/td[2]"
      },
      "contentsSumInsuredStd" : {
        "type": "XPATH",
        "value": "//*[@id='label-contentsSumInsured']/ancestor::tr/td[1]"
      },
      "contentsSumInsuredElite" : {
        "type": "XPATH",
        "value": "//*[@id='label-contentsSumInsured']/ancestor::tr/td[2]"
      },
      "defaultWaterExcessValueStd" : {
        "type": "XPATH",
        "value" : "//section[2]//table[6]/tbody/tr[2]/td[1]/span"
      },
      "defaultWaterExcessValueElite" : {
        "type": "XPATH",
        "value" : "//section[2]//table[6]/tbody/tr[2]/td[2]/span"
      },
      "defaultExcessValueDisplay" : {
        "type": "XPATH",
        "value" : "//p[contains(text(),'includes a <value> compulsory excess')]"
      },
      "excessValueDisplay" : {
        "type": "XPATH",
        "value" : "//label[contains(@class,'field-label')][contains(text(),'<value>')]"
      },
      "jointFirstName": {
        "type": "ID",
        "value": "jointFirstName"
      },
      "jointSurname": {
        "type": "ID",
        "value": "jointSurname"
      },
      "addJointPolicyHolder": {
        "type": "XPATH",
        "value": "//*[@for='addjointpolicyholder_<value>']"
      },
      "jointHolderTitle": {
        "type": "XPATH",
        "value": "//*[@data-test-id='joint-title'][text()='<title>']"
      },
      "jointFemale": {
        "type": "XPATH",
        "value": "//*[@for='jointFemale']"
      },
      "claimsListClaimMonth": {
        "type": "ID",
        "value": "claimsList<noOfclaims>.claimMonth"
      },
      "claimsListClaimYear": {
        "type": "ID",
        "value": "claimsList<noOfclaims>.claimYear"
      },
      "claimsListTypeOfClaim": {
        "type": "ID",
        "value": "claimsList<noOfclaims>.typeOfClaim"
      },
      "claimsListClaimValue": {
        "type": "ID",
        "value": "claimsList<noOfclaims>.claimValue"
      },
      "claimsListClaimAddress": {
        "type": "ID",
        "value": "label-claimsList<noOfclaims>.wasClaimAddressToBeInsured-0"
      },
      "labelNumberOfClaims": {
        "type": "ID",
        "value": "label-numberOfClaims-<index>"
      },
      "labelFlooded": {
        "type": "XPATH",
        "value": "//label[@id=\"label-flooded-<index>\"]"
      },
      "homeInsuranceStandardLabel": {
        "type": "XPATH",
        "value": "//form/table[1]/tbody/tr/td[1]/div[1]"
      },
      "homeInsuranceEliteLabel": {
        "type": "XPATH",
        "value": "//form/table[1]/tbody/tr/td[2]/div[1]"
      },
      "standardProductPrice": {
        "type": "XPATH",
        "value": "//table[1]/tbody/tr/td[1]/div[3]/div/span/span[1]"
      },
      "eliteProductPrice": {
        "type": "XPATH",
        "value": "//table[1]/tbody/tr/td[2]/div[4]/div/span/span[1]"
      },
      "addPossessionsCover": {
        "type": "XPATH",
        "value": "//label[contains(@id,'label-possessionsCover')][contains(text(),'<choosePossessionsCoverText>')]"
      },
      "addAccidentalDamage": {
        "type": "XPATH",
        "value": "//label[contains(@id,'label-accidentalDamage')][contains(text(),'<chooseADText>')]"
      },
      "addHomeEmergency": {
        "type": "XPATH",
        "value": "//label[contains(@id,'label-he24SelFlag')][contains(text(),'<chooseHEText>')]"
      },
      "addFamilyLegalProtection": {
        "type": "XPATH",
        "value": "//label[contains(@id,'label-flpSelFlag')][contains(text(),'<chooseFLPText>')]"
      },
      "productTypeButton": {
        "type": "XPATH",
        "value": "//*[@id='<homeInsuranceText>']"
      },
      "saveForLaterButton": {
        "type": "XPATH",
        "value": "//*[@id='maincontent']//form/section/a[contains(text(),'Save for later')]"
      },
      "policyExcess" : {
        "type" : "ID",
        "value" : "policyExcess"
      },
      "standardExcessSelect" : {
        "type" : "ID",
        "value" : "standard-excess-select"
      },
      "plusExcessSelect" : {
        "type" : "ID",
        "value" : "plus-excess-select"
      },
      "excessLimitSection" : {
        "type" : "XPATH",
        "value" : "//*[@aria-label='Home Insurance. Escape of water excess (compulsory)']/span"
      },
      "homeInsuranceSinglePayment" : {
        "type" : "XPATH",
        "value" : "(//*[@class='product-header__price--value'])[5]"
      },
      "AccidentalDamageAdd" : {
        "type" : "XPATH",
        "value" : "//*[@id='label-accidentalDamage-0']"
      },
      "AccidentalDamageRemove" : {
        "type" : "XPATH",
        "value" : "//*[@id='label-accidentalDamage-1']"
      },
      "HomeEmergencyAdd" : {
        "type" : "XPATH",
        "value" : "//*[@id='label-he24SelFlag-0']"
      },
      "HomeEmergencyRemove" : {
        "type" : "XPATH",
        "value" : "//*[@id='label-he24SelFlag-1']"
      },
      "FLPAdd" : {
        "type" : "XPATH",
        "value" : "//*[@id='label-flpSelFlag-0']"
      },
      "FLPRemove" : {
        "type" : "XPATH",
        "value" : "//*[@id='label-flpSelFlag-1']"
      },
      "textElement" : {
        "type" : "XPATH",
        "value" : "//*[contains(text(),\"<content>\")]"
      },
      "needHVIOver2KYes" : {
        "type" : "ID",
        "value" : "label-standardNeedsHVI-0"
      },
      "needHVIOver2KNo" : {
        "type" : "ID",
        "value" : "label-standardNeedsHVI-1"
      },
      "needHVIOver4KYes" : {
        "type" : "ID",
        "value" : "label-eliteNeedsHVI-0"
      },

      "addHighValueStandardButton" : {
        "type" : "XPATH",
        "value" : "//*[@id='inc-comp-specItems']/table/tbody/tr/td[1]/button"
      },
      "addHighValuePlusButton" : {
        "type" : "XPATH",
        "value" : "//*[@id='inc-comp-specItems']/table/tbody/tr/td[2]/button"
      },
      "highValueCoverType" : {
        "type" : "XPATH",
        "value" : "//label[contains(text(),'<insideOutsideTxt>')]"
      },
      "highValueItemCategory" : {
        "type" : "ID",
        "value" : "item_category"
      },
      "highValueItemValueInPounds" : {
        "type" : "ID",
        "value" : "item_itemValue"
      },
      "highValueItemDescription" : {
        "type" : "ID",
        "value" : "item_description"
      },
      "hviItemValueError" : {
        "type" : "XPATH",
        "value" : "//*[@id='error-item_itemValue']/span[2]"
      },
      "addMore" : {
        "type": "XPATH",
        "value" : "//button[text()='Add more']"
      },
      "saveAndClose" : {
        "type" : "XPATH",
        "value" : "//button[text()='Save and close']"
      },
      "cancelHVIModal" : {
        "type" : "XPATH",
        "value" : "//*[@id='ng-dialog-form']/footer/button[1]"
      },

      "addBicyclesStandard" : {
        "type" : "XPATH",
        "value" : "//button[contains(text(),'Add bicycles over ')]/span[contains(text(),'500')]"
      },
      "addBicyclesPlus" : {
        "type" : "XPATH",
        "value" : "//button[contains(text(),'Add bicycles over ')]/span[contains(text(),'1,000')]"
      },
      "bicycleDescription" : {
        "type" : "XPATH",
        "value" : "//*[@id='bicycle_description']"
      },
      "bicycleValue" : {
        "type" : "ID",
        "value" : "bicycle_itemValue"
      },
      "spinner" : {
        "type" : "XPATH",
        "value" : "//*[@id=\"maincontent\"]/section[3]/form/table[1]/tbody/tr/td[1]/div[1]/svg"
      },
      "quoteUpdateSpinner" : {
        "type" : "XPATH",
        "value" : "//*[@id=\"maincontent\"]/section[2]/form/table[1]/tbody/tr/td[1]/div[1]"
      }
    },

    "ReviewAndConfirmPage": {
      "agreeAndContinue": {
        "type": "XPATH",
        "value": "//button[contains(text(),'Agree & continue')]"
      },
      "saveForLater": {
        "type": "XPATH",
        "value": "//button[contains(text(),'Save for later')]"
      },
      "hviRow": {
        "type": "XPATH",
        "value": "//form/section[1]/section[1]/div/div/div[<rowNum>]/div[<columnNum>]"
      }

    },

    "PaymentsPage": {
      "errorContentsSumInsuredStandard" : {
        "type" : "ID",
        "value" : "error-contentsSumInsuredStandard"
      },
      "contentSumAssuredInput" : {
        "type": "XPATH",
        "value": "//div[@class='iblock m-sides-auto']/span/input"
      },
      "preferredPaymentMethod": {
        "type": "XPATH",
        "value": "//label[contains(@id,'label-preferredPaymentMethod-')][contains(text(),'<preferredPaymentMethodText>')]"
      },
      "ddPolicyHolder": {
        "type": "XPATH",
        "value": "//label[contains(@id,'label-ddPolicyHolder-')][contains(text(),'<ddPolicyHolderText>')]"
      },
      "lblAnnualCCAmount": {
        "type": "XPATH",
        "value": "//*[@id='label-preferredPaymentMethod-1']/span"
      },
      "accountNameText": {
        "type": "ID",
        "value": "ddAccountName"
      },
      "bankNameText": {
        "type": "ID",
        "value": "bankName"
      },
      "sortCode01": {
        "type": "ID",
        "value": "sortCode01"
      },
      "sortCode02": {
        "type": "ID",
        "value": "sortCode02"
      },
      "sortCode03": {
        "type": "ID",
        "value": "sortCode03"
      },
      "accountNumberText": {
        "type": "ID",
        "value": "accountNumber"
      },
      "preferredInstalmentDate": {
        "type": "ID",
        "value": "ddInstalDayOut"
      },
      "acceptSECCI": {
        "type": "XPATH",
        "value": "//*[@id=\"bdd-DDPaymentDetails\"]/bp-checkbox-single/div/label"
      },
      "nextButton": {
        "type": "XPATH",
        "value": "//*[@id='maincontent']//div/form/section[2]/button[2]"
      },
      "monthlyBuyNowBtn": {
        "type": "XPATH",
        "value": "//*[@id=\"monthly-direct-debit-modal dialog\"]/div[2]/monthly-direct-debit-modal/section/footer/button[2]"
      },
      "annualBuyNowBtn": {
        "type": "XPATH",
        "value": "//div//form/section[2]/button[2]"
      },
      "cardInYourName": {
        "type": "XPATH",
        "value": "//label[contains(@id,'label-cardInYourName-')][contains(text(),'<cardInYourNameText>')]"
      },
      "ccHoldersName": {
        "type": "ID",
        "value": "ccHolderName"
      },
      "ccNumber": {
        "type": "ID",
        "value": "ccCardNumber"
      },
      "ccCVV": {
        "type": "ID",
        "value": "ccSecurityNumber"
      },
      "expiryMonth": {
        "type": "ID",
        "value": "expiryMonth"
      },
      "expiryYear": {
        "type": "ID",
        "value": "expiryYear"
      },
      "ccIssueNumber": {
        "type": "ID",
        "value": "ccIssueNumber"
      },

      "sameBillingAddressBtn": {
        "type": "ID",
        "value": "label-billingAddress-0"
      },
      "differentBillingAddressBtn": {
        "type": "ID",
        "value": "label-billingAddress-1"
      },
      "ukBillingAddressBtn": {
        "type": "ID",
        "value": "label-UKBillingAddress-0"
      },
      "nonUKBillingAddressBtn": {
        "type": "ID",
        "value": "label-UKBillingAddress-1"
      },

      "billingEmailAddress": {
        "type": "ID",
        "value": "billingEmailAddress"
      },
      "differentBillingAddressLine1": {
        "type": "ID",
        "value": "ccLine1"
      },
      "differentBillingAddressLine2": {
        "type": "ID",
        "value": "ccLine2"
      },
      "differentBillingAddressPostcode": {
        "type": "ID",
        "value": "ccPostCode"
      },
      "differentBillingAddressCountry": {
        "type": "ID",
        "value": "ccCountry"
      },
      "lblCardDeclinedAlertMessageHeader" : {
        "type" : "XPATH",
        "value" : "//*[@id=\"paymentErrorCCScroll\"]"
      },
      "lblDDDeclinedAlertMessage" : {
        "type" : "XPATH",
        "value" : "//*[@id='paymentErrorDDScroll']//p[contains(text(),'not been possible to validate the payment')]"
      },
      "preferredPaymentMethodDD" : {
        "type" : "XPATH",
        "value" : "//*[@id='label-preferredPaymentMethod-1']"
      },
      "cardInYourNameLabel" : {
        "type" : "ID",
        "value" : "label-cardInYourName-0"
      },
      "ccCardNumber" : {
        "type" : "ID",
        "value" : "ccCardNumber"
      },
      "ccSecurityNumber" : {
        "type" : "ID",
        "value" : "ccSecurityNumber"
      },
      "ccExpiryMonth" : {
        "type" : "XPATH",
        "value" : "//input[@id='expiryMonth']"
      },
      "ccExpiryYear" : {
        "type" : "XPATH",
        "value" : "//input[@id='expiryYear']"
      },
      "cardNextButton" : {
        "type" : "XPATH",
        "value" : "//*[@id=\"maincontent\"]/div//button[2]"
      },
      "finalSummaryText" : {
        "type" : "XPATH",
        "value" : "//*[text()='Final Summary']"
      },
      "buyNowButton" : {
        "type" : "XPATH",
        "value" : "//button[text()='Buy now']"
      },
      "declineErrorMessage" : {
        "type" : "XPATH",
        "value" : "//*[@id='maincontent']/section/div/p"
      },
      "paymentErrorMessage" : {
        "type" : "XPATH",
        "value" : "//h2[contains(text(),'Payment error')]"
      },
      "3dPassword" : {
        "type" : "XPATH",
        "value" : "//input[@name='Password']"
      },
      "3dSubmit" : {
        "type" : "XPATH",
        "value" : "//a[@name='a1']/img"
      },
      "preferredPaymentMethodLabel" : {
        "type" : "ID",
        "value" : "label-preferredPaymentMethod-0"
      },
      "ddPolicyHolderLabel" : {
        "type" : "ID",
        "value" : "label-ddPolicyHolder-0"
      },
      "secciCheckBox" : {
        "type" : "XPATH",
        "value" : "//label[@for=\"secciadequate\"]"
      },
      "buildingSumInsured" : {
        "type" : "XPATH",
        "value" : "//span[text()='Buildings sum insured']"
      },
      "contentsSumInsured" : {
        "type" : "XPATH",
        "value" : "//*[@id='label-contentsSumInsured']"
      },
      "coverTypeText" : {
        "type" : "XPATH",
        "value" : "//*[@id='coverType']"
      },
      "contentsSumInsuredStandard" : {
        "type" : "ID",
        "value" : "contentsSumInsuredStandard"
      },
      "homeContentsSumInsuredBtn" : {
        "type" : "XPATH",
        "value" : "//*[@data-test-id='cont-sum-btn']"
      },
      "homeContentsSumInsured" : {
        "type" : "ID",
        "value" : "contentsSumInsuredInput"
      },
      "homeContentsSumInsuredSaveBtn" : {
        "type" : "XPATH",
        "value" : "//*[@data-test-id='cont-sum-save-btn']"
      }
    },

    "TestBankPage": {
      "passwordField": {
        "type": "XPATH",
        "value": "//table[2]/tbody/tr/td/form/font[1]/input"
      },
      "submitButton": {
        "type": "XPATH",
        "value": "//table[2]/tbody/tr/td/form/font[2]/a[1]"
      },
      "cancelButton": {
        "type": "XPATH",
        "value": "//table[2]/tbody/tr/td/form/font[2]/a[2]"
      },
      "okButton" : {
        "type": "XPATH",
        "value": "//*[@id='challengeForm']/input[4]"
      }
    },

    "SSODashboardPage" : {
       "reviewAndBuy" : {
        "type" : "XPATH",
        "value" : "//button[text()='Review and buy']"
      },
      "policyHolderName" : {
        "type" : "XPATH",
        "value" : "//h2[@class='sso_client-name']/span[contains(text(),'<userName>')]"
      },
      "quoteElement" :  {
        "type" : "XPATH",
        "value": "//li[@class='sso_portfolio-item sso_quote-home']"
      },
      "quoteValue"  : {
        "type" : "XPATH",
        "value": "//sso-quote/div//ul/li[1]/section/header/a/div/span[contains(text(),'<quoteValText>')]"

      },
      "reviewAndBuyLink"  : {
        "type" : "XPATH",
        "value": "//sso-quote//div[2]/div/ul[2]//section/header/a/div/span[contains(text(),'<quoteValText>')]/parent::div/parent::a/parent::header/span"
      },

      "policyElement" :  {
        "type" : "XPATH",
        "value": "//a[@class='sso_portfolio-item-header has-detail']"
      },
      "policyNumber" : {
        "type" : "XPATH",
        "value" : "//div[@class='sso_portfolio-item-detail']/dl/dd"
      },
      "policiesTab" : {
        "type" : "XPATH",
        "value" : "//*[@id='sso']//a[contains(text(),'Policies')]"
      },
      "policyItemHeader" : {
        "type" : "XPATH",
        "value" : "//*[@id='sso']//sso-dashboard//sso-policy//a"
      },
      "policyNumberTxt" : {
        "type" : "XPATH",
        "value" : "//*[@id='sso']/app-root//sso-dashboard//sso-policy//div//ul//dl/dt[contains(text(),'Policy number')]/following-sibling::dd[1]"
      }
    },

    "PaymentConfirmationPage": {
      "paymentSuccessText": {
        "type": "XPATH",
        "value": "//*[@id=\"maincontent\"]/header/h1[contains(text(),'Payment Successful')]"
      },
      "myDashboardBtn": {
        "type": "XPATH",
        "value": "//*[@id='maincontent']/section/article[3]/a"
      }
    },

    "SSOLoginPage": {
      "saveQuoteText": {
        "type": "XPATH",
        "value": "//*[@id=\"sso\"]//app-sign-in-register/div/h1[contains(text(), 'Save quote')]"
      },
      "welcomeBackText": {
        "type": "XPATH",
        "value": "//*[@id=\"sso\"]//app-sign-in-register/div/p[1][contains(text(), 'Welcome back')]"
      },
      "emailAddressText": {
        "type": "ID",
        "value": "sso_sign-in-username"
      },
      "passwordText": {
        "type": "ID",
        "value": "sso_sign-in-password-caps"
      },
      "captchaCheckbox": {
        "type": "CLASSNAME",
        "value": "recaptcha-checkbox-border"
      },
      "signInButton": {
        "type": "XPATH",
        "value": "//button[contains(text(),\"Sign in\")]"
      },
      "acceptCookieButton": {
        "type": "XPATH",
        "value": "//*[@id='js-cookie-banner']/div/button"
      },
      "registrationButton" : {
        "type" : "XPATH",
        "value" : "//button[contains(text(),\"Register\")]"
      }
    },

    "SSORegistrationPage" : {
      "ssoHeading" : {
        "type" : "XPATH",
        "value" : "//*[@id='sso']/app-root/div[2]/app-registration/div/h1"
      },
      "ssoFirstName" : {
        "type" : "ID",
        "value" : "sso_register-first-name"
      },

      "ssoLastName" : {
        "type" : "ID",
        "value" : "sso_register-last-name"
      },
      "ssoDOBDay" : {
        "type" : "ID",
        "value" : "sso_register-day"
      },
      "ssoDOBMonth" : {
        "type" : "ID",
        "value" : "sso_register-month"
      },
      "ssoDOBYear" : {
        "type" : "ID",
        "value" : "sso_register-year"
      },
      "ssoEmailAddress" : {
        "type" : "ID",
        "value" : "sso_register-username"
      },
      "emailAddressText" : {
        "type" : "ID",
        "value" : "sso_register-confirm-username"
      },
      "ssoPasswordText" : {
        "type" : "ID",
        "value" : "sso_register-password-caps"
      },

      "passwordText" : {
        "type" : "ID",
        "value" : "sso_register-password"
      },
      "confirmPasswordText" : {
        "type" : "ID",
        "value" : "sso_register-confirm-password-caps"
      },
      "securityQuestion" : {
        "type" : "XPATH",
        "value" : "//label[@for='sso_register-security-question0']"
      },
      "securityAnswer" : {
        "type" : "ID",
        "value" : "sso_register-security-answer-caps"
      },
      "registrationButton" : {
        "type" : "CLASSNAME",
        "value" : "sso_button-primary"
      },
      "captchaIFrame": {
        "type": "XPATH",
        "value": "//*[@id='recaptcha']/div/div/iframe"
      },

      "captchaCheckbox": {
        "type": "CLASSNAME",
        "value": "recaptcha-checkbox-border"
      },
      "signIn" : {
        "type" : "XPATH",
        "value" : "//*[@id='register']//a[contains(text(),'Sign in')]"
      }
    },

    "ErrorPage" : {
      "errorMessage" : {
        "type" : "XPATH",
        "value" : "//section/div/p"
      },
      "claimsErrorMessage" : {
        "type" : "XPATH",
        "value" : "//section/div/h3"
      }
    },

    "MultipleCardsErrorPage" : {
      "cardDetailsTitle" : {
        "type" : "XPATH",
        "value" : "//*[@id='maincontent']/section/div/h1[contains(text(),'Card Details')]"
      },
      "errorText" : {
        "type" : "XPATH",
        "value" : "//*[@id='maincontent']/section/div/p[contains(text(),'number of unsuccessful attempts')]"
      }

    }

  },

  "directline" : {
    "PaymentsPage" : {

      "cancelButton" : {
        "type" : "XPATH",
        "value" : "button[text()='Cancel'"
      },
      "BicyclesItem" : {
        "type" : "XPATH",
        "value" : "//*[@id=\"error-bicycle_itemValue\"]/span[2]"
      },
      "coverItemsOutsideHome" : {
        "type" : "XPATH",
        "value" : "//*[@id=\"error-possessionsCoverStandard\"]/span[2]"
      },
      "HighValueItems" : {
        "type" : "XPATH",
        "value" : "//*[@id=\"error-item_itemValue\"]/span[2]"
      },
      "coverItemsOutsideHomePlus" : {
        "type" : "XPATH",
        "value" : "//*[@id=\"error-possessionsCoverElite\"]/span[2]"
      },
      "selectHomeInsurancePlus" : {
        "type" : "ID",
        "value" : "selectHomeInsurancePlus"
      },
      "possessionsCoverElite" : {
        "type" : "ID",
        "value" : "possessionsCoverElite"
      },
      "possessionsCoverStandard" : {
        "type" : "ID",
        "value" : "possessionsCoverStandard"
      }
    }
  },

  "privilege" : {
    "SSORegistrationPage" : {
      "acceptCookieButton": {
        "type": "XPATH",
        "value": "//*[@id='cookie-panel/close']"
      }
    }
  }
}